proj/cpu_simulation.vcd
$date
    Thu Jul 10 18:22:52 2014
$end
$version
    MyHDL 0.8
$end
$timescale
    1ns
$end

$scope module cpu_simulation $end
$var reg 16 ! reg_dout $end
$var reg 1 " reg_we $end
$var reg 6 # op1 $end
$var reg 6 $ op2 $end
$var real 1 % clk $end
$var reg 16 & rom_dout $end
$var reg 16 ' ram_din $end
$var reg 16 ( pc $end
$var reg 4 ) opcode $end
$var reg 16 * reg_din $end
$var reg 1 + ram_we $end
$var reg 16 , reg_current $end
$var reg 16 - ram_addr $end
$var reg 16 . ram_dout $end
$scope module iu $end
$var reg 16 & din $end
$var reg 4 ) opcode $end
$var reg 6 # op1 $end
$var reg 6 $ op2 $end
$upscope $end
$scope module rb $end
$var reg 16 , reg $end
$var reg 1 " we $end
$var reg 16 ! dout $end
$var reg 16 * din $end
$var real 1 % clk $end
$var reg 16 / registers(0) $end
$var reg 16 0 registers(1) $end
$var reg 16 1 registers(2) $end
$var reg 16 2 registers(3) $end
$var reg 16 3 registers(4) $end
$var reg 16 4 registers(5) $end
$var reg 16 5 registers(6) $end
$var reg 16 6 registers(7) $end
$var reg 16 7 registers(8) $end
$var reg 16 8 registers(9) $end
$var reg 16 9 registers(10) $end
$var reg 16 : registers(11) $end
$var reg 16 ; registers(12) $end
$var reg 16 < registers(13) $end
$upscope $end
$scope module ram $end
$var reg 16 ' din $end
$var reg 1 + we $end
$var reg 16 . dout $end
$var reg 16 - addr $end
$var real 1 % clk $end
$var reg 16 = mem(0) $end
$var reg 16 > mem(1) $end
$var reg 16 ? mem(2) $end
$var reg 16 @ mem(3) $end
$var reg 16 A mem(4) $end
$var reg 16 B mem(5) $end
$var reg 16 C mem(6) $end
$var reg 16 D mem(7) $end
$var reg 16 E mem(8) $end
$var reg 16 F mem(9) $end
$var reg 16 G mem(10) $end
$var reg 16 H mem(11) $end
$var reg 16 I mem(12) $end
$var reg 16 J mem(13) $end
$var reg 16 K mem(14) $end
$var reg 16 L mem(15) $end
$var reg 16 M mem(16) $end
$var reg 16 N mem(17) $end
$var reg 16 O mem(18) $end
$var reg 16 P mem(19) $end
$var reg 16 Q mem(20) $end
$var reg 16 R mem(21) $end
$var reg 16 S mem(22) $end
$var reg 16 T mem(23) $end
$var reg 16 U mem(24) $end
$var reg 16 V mem(25) $end
$var reg 16 W mem(26) $end
$var reg 16 X mem(27) $end
$var reg 16 Y mem(28) $end
$var reg 16 Z mem(29) $end
$var reg 16 [ mem(30) $end
$var reg 16 \ mem(31) $end
$upscope $end
$scope module rom $end
$var reg 16 & dout $end
$var reg 16 ( addr $end
$upscope $end
$scope module clk_driver $end
$var real 1 % clk $end
$upscope $end
$upscope $end

$enddefinitions $end
$dumpvars
b0000000000000000 !
0"
b000000 #
b000000 $
s0 %
b0000000000000000 &
b0000000000000000 '
b0000000000000000 (
b0000 )
b0000000000000000 *
0+
b0000000000000000 ,
b0000000000000000 -
b0000000000000000 .
b0000000000000000 /
b0000000000000000 0
b0000000000000000 1
b0000000000000000 2
b0000000000000000 3
b0000000000000000 4
b0000000000000000 5
b0000000000000000 6
b0000000000000000 7
b0000000000000000 8
b0000000000000000 9
b0000000000000000 :
b0000000000000000 ;
b0000000000000000 <
b0000000000000000 =
b0000000000000000 >
b0000000000000000 ?
b0000000000000000 @
b0000000000000000 A
b0000000000000000 B
b0000000000000000 C
b0000000000000000 D
b0000000000000000 E
b0000000000000000 F
b0000000000000000 G
b0000000000000000 H
b0000000000000000 I
b0000000000000000 J
b0000000000000000 K
b0000000000000000 L
b0000000000000000 M
b0000000000000000 N
b0000000000000000 O
b0000000000000000 P
b0000000000000000 Q
b0000000000000000 R
b0000000000000000 S
b0000000000000000 T
b0000000000000000 U
b0000000000000000 V
b0000000000000000 W
b0000000000000000 X
b0000000000000000 Y
b0000000000000000 Z
b0000000000000000 [
b0000000000000000 \
$end
b0100000110101101 &
b0100 )
b000110 #
b101101 $
#10
sTrue %
b0000000000000110 ,
b0000000000101101 *
1"
#20
sFalse %
#30
sTrue %
b0000000000101101 5
0"
b0000000000000001 ,
#40
sFalse %
#50
sTrue %
1"
b0000000000000001 *
#60
sFalse %
#70
sTrue %
b0000000000000001 0
b0000000000000001 !
0"
b0000000000000001 (
b0100001010000011 &
b001010 #
b000011 $
#80
sFalse %
#90
sTrue %
b0000000000001010 ,
b0000000000000011 *
1"
b0000000000000000 !
#100
sFalse %
#110
sTrue %
b0000000000000011 9
0"
b0000000000000001 ,
b0000000000000001 !
#120
sFalse %
#130
sTrue %
1"
b0000000000000010 *
#140
sFalse %
#150
sTrue %
b0000000000000010 0
b0000000000000010 !
0"
b0000000000000010 (
b0100001011000010 &
b001011 #
b000010 $
#160
sFalse %
#170
sTrue %
b0000000000001011 ,
1"
b0000000000000000 !
#180
sFalse %
#190
sTrue %
b0000000000000010 :
0"
b0000000000000001 ,
b0000000000000010 !
#200
sFalse %
#210
sTrue %
1"
b0000000000000011 *
#220
sFalse %
#230
sTrue %
b0000000000000011 0
b0000000000000011 !
0"
b0000000000000011 (
b0100000111000011 &
b000111 #
b000011 $
#240
sFalse %
#250
sTrue %
b0000000000000111 ,
1"
b0000000000000000 !
#260
sFalse %
#270
sTrue %
b0000000000000011 6
0"
b0000000000000001 ,
b0000000000000011 !
#280
sFalse %
#290
sTrue %
1"
b0000000000000100 *
#300
sFalse %
#310
sTrue %
b0000000000000100 0
b0000000000000100 !
0"
b0000000000000100 (
b1100000110001010 &
b1100 )
b000110 #
b001010 $
#320
sFalse %
#330
sTrue %
b0000000000001010 ,
b0000000000000011 !
#340
sFalse %
#350
sTrue %
b0000000000000110 ,
b0000000000101101 !
#360
sFalse %
#370
sTrue %
1"
b0000000101101000 *
#380
sFalse %
#390
sTrue %
b0000000101101000 5
0"
b0000000000000001 ,
b0000000000000100 !
#400
sFalse %
#410
sTrue %
1"
b0000000000000101 *
#420
sFalse %
#430
sTrue %
b0000000000000101 0
b0000000000000101 !
0"
b0000000000000101 (
b1100000111001011 &
b000111 #
b001011 $
#440
sFalse %
#450
sTrue %
b0000000000001011 ,
b0000000000000010 !
#460
sFalse %
#470
sTrue %
b0000000000000111 ,
b0000000000000011 !
#480
sFalse %
#490
sTrue %
1"
b0000000000001100 *
#500
sFalse %
#510
sTrue %
b0000000000001100 6
0"
b0000000000000001 ,
b0000000000000101 !
#520
sFalse %
#530
sTrue %
1"
b0000000000000110 *
#540
sFalse %
#550
sTrue %
b0000000000000110 0
b0000000000000110 !
0"
b0000000000000110 (
b0011001100000110 &
b0011 )
b001100 #
b000110 $
#560
sFalse %
#570
sTrue %
b0000000000000110 ,
b0000000101101000 !
#580
sFalse %
#590
sTrue %
1"
b0000000000001100 ,
b0000000101101000 *
b0000000000000000 !
#600
sFalse %
#610
sTrue %
0"
b0000000000000001 ,
b0000000101101000 ;
b0000000000000110 !
#620
sFalse %
#630
sTrue %
1"
b0000000000000111 *
#640
sFalse %
#650
sTrue %
b0000000000000111 0
b0000000000000111 !
0"
b0000000000000111 (
b0011001101000111 &
b001101 #
b000111 $
#660
sFalse %
#670
sTrue %
b0000000000000111 ,
b0000000000001100 !
#680
sFalse %
#690
sTrue %
1"
b0000000000001101 ,
b0000000000001100 *
b0000000000000000 !
#700
sFalse %
#710
sTrue %
0"
b0000000000000001 ,
b0000000000001100 <
b0000000000000111 !
#720
sFalse %
#730
sTrue %
1"
b0000000000001000 *
#740
sFalse %
#750
sTrue %
b0000000000001000 0
b0000000000001000 !
0"
b0000000000001000 (
b0100001000000000 &
b0100 )
b001000 #
b000000 $
#760
sFalse %
#770
sTrue %
b0000000000001000 ,
b0000000000000000 *
1"
b0000000000000000 !
#780
sFalse %
#790
sTrue %
0"
b0000000000000001 ,
b0000000000001000 !
#800
sFalse %
#810
sTrue %
1"
b0000000000001001 *
#820
sFalse %
#830
sTrue %
b0000000000001001 0
b0000000000001001 !
0"
b0000000000001001 (
b0100000011001001 &
b000011 #
b001001 $
#840
sFalse %
#850
sTrue %
b0000000000000011 ,
1"
b0000000000000000 !
#860
sFalse %
#870
sTrue %
b0000000000001001 2
0"
b0000000000000001 ,
b0000000000001001 !
#880
sFalse %
#890
sTrue %
1"
b0000000000001010 *
#900
sFalse %
#910
sTrue %
b0000000000001010 0
b0000000000001010 !
0"
b0000000000001010 (
b0011001001000111 &
b0011 )
b001001 #
b000111 $
#920
sFalse %
#930
sTrue %
b0000000000000111 ,
b0000000000001100 !
#940
sFalse %
#950
sTrue %
1"
b0000000000001001 ,
b0000000000001100 *
b0000000000000000 !
#960
sFalse %
#970
sTrue %
0"
b0000000000000001 ,
b0000000000001100 8
b0000000000001010 !
#980
sFalse %
#990
sTrue %
1"
b0000000000001011 *
#1000
sFalse %
#1010
sTrue %
b0000000000001011 0
b0000000000001011 !
0"
b0000000000001011 (
b0011000100000110 &
b000100 #
b000110 $
#1020
sFalse %
#1030
sTrue %
b0000000000000110 ,
b0000000101101000 !
#1040
sFalse %
#1050
sTrue %
1"
b0000000000000100 ,
b0000000101101000 *
b0000000000000000 !
#1060
sFalse %
#1070
sTrue %
0"
b0000000000000001 ,
b0000000101101000 3
b0000000000001011 !
#1080
sFalse %
#1090
sTrue %
1"
b0000000000001100 *
#1100
sFalse %
#1110
sTrue %
b0000000000001100 0
b0000000000001100 !
0"
b0000000000001100 (
b1000000110000111 &
b1000 )
b000110 #
b000111 $
#1120
sFalse %
#1130
sTrue %
b0000000000000111 ,
#1140
sFalse %
#1150
sTrue %
b0000000000000110 ,
b0000000101101000 !
#1160
sFalse %
#1170
sTrue %
1"
b0000000000011110 *
#1180
sFalse %
#1190
sTrue %
b0000000000011110 5
0"
b0000000000000001 ,
b0000000000001100 !
#1200
sFalse %
#1210
sTrue %
1"
b0000000000001101 *
#1220
sFalse %
#1230
sTrue %
b0000000000001101 0
b0000000000001101 !
0"
b0000000000001101 (
b0111000110000111 &
b0111 )
#1240
sFalse %
#1250
sTrue %
b0000000000000111 ,
b0000000000001100 !
#1260
sFalse %
#1270
sTrue %
b0000000000000110 ,
b0000000000011110 !
#1280
sFalse %
#1290
sTrue %
1"
b0000000101101000 *
#1300
sFalse %
#1310
sTrue %
b0000000101101000 5
0"
b0000000000000001 ,
b0000000000001101 !
#1320
sFalse %
#1330
sTrue %
1"
b0000000000001110 *
#1340
sFalse %
#1350
sTrue %
b0000000000001110 0
b0000000000001110 !
0"
b0000000000001110 (
b0110000100000110 &
b0110 )
b000100 #
b000110 $
#1360
sFalse %
#1370
sTrue %
b0000000000000110 ,
b0000000101101000 !
#1380
sFalse %
#1390
sTrue %
b0000000000000100 ,
#1400
sFalse %
#1410
sTrue %
1"
b0000000000000000 *
#1420
sFalse %
#1430
sTrue %
b0000000000000000 3
0"
b0000000000000001 ,
b0000000000001110 !
#1440
sFalse %
#1450
sTrue %
1"
b0000000000001111 *
#1460
sFalse %
#1470
sTrue %
b0000000000001111 0
b0000000000001111 !
0"
b0000000000001111 (
b0011000110000100 &
b0011 )
b000110 #
b000100 $
#1480
sFalse %
#1490
sTrue %
b0000000000000100 ,
b0000000000000000 !
#1500
sFalse %
#1510
sTrue %
1"
b0000000000000110 ,
b0000000000000000 *
b0000000101101000 !
#1520
sFalse %
#1530
sTrue %
0"
b0000000000000001 ,
b0000000000000000 5
b0000000000001111 !
#1540
sFalse %
#1550
sTrue %
1"
b0000000000010000 *
#1560
sFalse %
#1570
sTrue %
b0000000000010000 0
b0000000000010000 !
0"
b0000000000010000 (
b0011000111000110 &
b000111 #
b000110 $
#1580
sFalse %
#1590
sTrue %
b0000000000000110 ,
b0000000000000000 !
#1600
sFalse %
#1610
sTrue %
1"
b0000000000000111 ,
b0000000000000000 *
b0000000000001100 !
#1620
sFalse %
#1630
sTrue %
0"
b0000000000000001 ,
b0000000000000000 6
b0000000000010000 !
#1640
sFalse %
#1650
sTrue %
1"
b0000000000010001 *
#1660
sFalse %
#1670
sTrue %
b0000000000010001 0
b0000000000010001 !
0"
b0000000000010001 (
b0011000110001001 &
b000110 #
b001001 $
#1680
sFalse %
#1690
sTrue %
b0000000000001001 ,
b0000000000001100 !
#1700
sFalse %
#1710
sTrue %
1"
b0000000000000110 ,
b0000000000001100 *
b0000000000000000 !
#1720
sFalse %
#1730
sTrue %
0"
b0000000000000001 ,
b0000000000001100 5
b0000000000010001 !
#1740
sFalse %
#1750
sTrue %
1"
b0000000000010010 *
#1760
sFalse %
#1770
sTrue %
b0000000000010010 0
b0000000000010010 !
0"
b0000000000010010 (
b1110000111001000 &
b1110 )
b000111 #
b001000 $
#1780
sFalse %
#1790
sTrue %
b0000000000001000 ,
b0000000000000000 !
#1800
sFalse %
#1810
sTrue %
b0000000000000111 ,
#1820
sFalse %
#1830
sTrue %
1"
b0000000000000010 ,
b0000000000000000 *
#1840
sFalse %
#1850
sTrue %
0"
b0000000000000001 ,
b0000000000010010 !
#1860
sFalse %
#1870
sTrue %
1"
b0000000000010011 *
#1880
sFalse %
#1890
sTrue %
b0000000000010011 0
b0000000000010011 !
0"
b0000000000010011 (
b0100000100000001 &
b0100 )
b000100 #
b000001 $
#1900
sFalse %
#1910
sTrue %
b0000000000000100 ,
b0000000000000001 *
1"
b0000000000000000 !
#1920
sFalse %
#1930
sTrue %
b0000000000000001 3
0"
b0000000000000001 ,
b0000000000010011 !
#1940
sFalse %
#1950
sTrue %
1"
b0000000000010100 *
#1960
sFalse %
#1970
sTrue %
b0000000000010100 0
b0000000000010100 !
0"
b0000000000010100 (
b1111000100000010 &
b1111 )
b000010 $
#1980
sFalse %
#1990
sTrue %
b0000000000000010 ,
b0000000000000000 !
#2000
sFalse %
#2010
sTrue %
b0000000000000100 ,
b0000000000000001 !
#2020
sFalse %
#2030
sTrue %
b0000000000000001 ,
b0000000000010100 !
#2040
sFalse %
#2050
sTrue %
1"
b0000000000010101 *
#2060
sFalse %
#2070
sTrue %
b0000000000010101 0
b0000000000010101 !
0"
b0000000000010101 (
b0100000100000010 &
b0100 )
#2080
sFalse %
#2090
sTrue %
b0000000000000100 ,
b0000000000000010 *
1"
b0000000000000001 !
#2100
sFalse %
#2110
sTrue %
b0000000000000010 3
0"
b0000000000000001 ,
b0000000000010101 !
#2120
sFalse %
#2130
sTrue %
1"
b0000000000010110 *
#2140
sFalse %
#2150
sTrue %
b0000000000010110 0
b0000000000010110 !
0"
b0000000000010110 (
b1111000100000010 &
b1111 )
#2160
sFalse %
#2170
sTrue %
b0000000000000010 ,
b0000000000000000 !
#2180
sFalse %
#2190
sTrue %
b0000000000000100 ,
b0000000000000010 !
#2200
sFalse %
#2210
sTrue %
b0000000000000001 ,
b0000000000010110 !
#2220
sFalse %
#2230
sTrue %
1"
b0000000000010111 *
#2240
sFalse %
#2250
sTrue %
b0000000000010111 0
b0000000000010111 !
0"
b0000000000010111 (
b0000000000000000 &
b0000 )
b000000 #
b000000 $
#2260
sFalse %
#2270
sTrue %
b0000000000000000 ,
b0000000000000000 !
#2280
sFalse %
#2290
sTrue %
b0000000000000001 ,
b0000000000010111 !
#2300
sFalse %
#2310
sTrue %
b0000000000000010 ,
b0000000000000000 !
#2320
sFalse %
#2330
sTrue %
b0000000000000011 ,
b0000000000001001 !
#2340
sFalse %
#2350
sTrue %
b0000000000000100 ,
b0000000000000010 !
#2360
sFalse %
#2370
sTrue %
b0000000000000101 ,
b0000000000000000 !
#2380
sFalse %
#2390
sTrue %
b0000000000000110 ,
b0000000000001100 !
#2400
sFalse %
#2410
sTrue %
b0000000000000111 ,
b0000000000000000 !
#2420
sFalse %
#2430
sTrue %
b0000000000001000 ,
#2440
sFalse %
#2450
sTrue %
b0000000000001001 ,
b0000000000001100 !
#2460
sFalse %
#2470
sTrue %
b0000000000001010 ,
b0000000000000011 !
#2480
sFalse %
#2490
sTrue %
b0000000000001011 ,
b0000000000000010 !
#2500
sFalse %
#2510
sTrue %
b0000000000001100 ,
b0000000101101000 !
#2520
sFalse %
#2530
sTrue %
b0000000000001101 ,
b0000000000001100 !
#2540
sFalse %
#2550
sTrue %
#2560
sFalse %
#2570
sTrue %
b0000000000000001 -
#2580
sFalse %
#2590
sTrue %
b0000000000000010 -
#2600
sFalse %
#2610
sTrue %
b0000000000000011 -
#2620
sFalse %
#2630
sTrue %
b0000000000000100 -
#2640
sFalse %
#2650
sTrue %
b0000000000000101 -
#2660
sFalse %
#2670
sTrue %
b0000000000000110 -
#2680
sFalse %
#2690
sTrue %
b0000000000000111 -
#2700
sFalse %
#2710
sTrue %
b0000000000001000 -
#2720
sFalse %
#2730
sTrue %
b0000000000001001 -
#2740
sFalse %
#2750
sTrue %
b0000000000001010 -
#2760
sFalse %
#2770
sTrue %
b0000000000001011 -
#2780
sFalse %
#2790
sTrue %
b0000000000001100 -
#2800
sFalse %
#2810
sTrue %
b0000000000001101 -
#2820
sFalse %
#2830
sTrue %
b0000000000001110 -
#2840
sFalse %
#2850
sTrue %
b0000000000001111 -
#2860
sFalse %
#2870
sTrue %
b0000000000010000 -
#2880
sFalse %
#2890
sTrue %
b0000000000010001 -
#2900
sFalse %
#2910
sTrue %
b0000000000010010 -
#2920
sFalse %
#2930
sTrue %
b0000000000010011 -
#2940
sFalse %
#2950
sTrue %
b0000000000010100 -
#2960
sFalse %
#2970
sTrue %
b0000000000010101 -
#2980
sFalse %
#2990
sTrue %
b0000000000010110 -
#3000
sFalse %
#3010
sTrue %
b0000000000010111 -
#3020
sFalse %
#3030
sTrue %
b0000000000011000 -
#3040
sFalse %
#3050
sTrue %
b0000000000011001 -
#3060
sFalse %
#3070
sTrue %
b0000000000011010 -
#3080
sFalse %
#3090
sTrue %
b0000000000011011 -
#3100
sFalse %
#3110
sTrue %
b0000000000011100 -
#3120
sFalse %
#3130
sTrue %
b0000000000011101 -
#3140
sFalse %
#3150
sTrue %
b0000000000011110 -
#3160
sFalse %
#3170
sTrue %
b0000000000011111 -
#3180
sFalse %
#3190
sTrue %
